{
    "id" : "moz:demo_flooding",
    "type": "moz:Mosaic",
    "dc:title" : "Belgian Floodings Demo",
    "dc:date" : "2015-02-10T15:00:00Z",

    "resources" : [ {
        "type": "moz:Resource",
        "dc:title" : "Rapport Inondations 07/2014",
        "source" : "http://www.crsenne.be/pdf/plateforme%20inondation%2026-08-2014.pdf"
    }
    ],
    "annotations" : [
        {
            "type": "Annotation",
            "dc:title" : "News Coverage",
            "dc:description" : "RTBF coverage of the July 2014 floodings",
            "body" : {
                "source": "https://rtbf-vod.l3.freecaster.net/vod/rtbf/geo/open/h/hcOb9LaxcI-480p.mp4",
                "selector": {
                    "type": "FragmentSelector",
                    "value": "t=01:08,02:00"
                }
            },
            "target" : {
                "source": "http://www.crsenne.be/pdf/plateforme%20inondation%2026-08-2014.pdf",
                "selector": {
                    "type": "FragmentSelector",
                    "value": "page=2&xywh=65,490,470,55"
                }
            }
        },

        {
            "type": "Annotation",
            "dc:title" : "Flooding Risk",
            "dc:description" : "Estimated flooding risk on Ittre",

            "body" : {
                "source": "http://geoservices.wallonie.be/arcgis/services/EAU/ALEA_2016/MapServer/WMSServer",
                "selector": {
                    "type": "FragmentSelector",
                    "value": "id=4&id=5&id=6&bbox=4.225,50.675,4.235,50.685"
                }
            },
            "target" : {
                "source": "http://www.crsenne.be/pdf/plateforme%20inondation%2026-08-2014.pdf",
                "selector": {
                    "type": "FragmentSelector",
                    "value": "page=3&xywh=70,655,455,50"
                }
            }
        },


        {
            "type": "Annotation",
            "dc:title" : "Travaux Planifiés",
            "dc:description" : "Aménagements planifiés et budgétisés à Ittre",

            "body" : {
                "source": "http://www.tubize.be/component/content/article/2-news/news/470-conseil-communal-du-10-juin-approbation-du-budget-2013",
                "selector": {
                    "type": "FragmentSelector",
                    "value": "xpath=%2F%2FDIV%5B%40id%3D'system'%5D%2FARTICLE%2FDIV%5B1%5D%2FUL%5B2%5D%2FLI%5B1%5D%2Ftext(),0,%2F%2FDIV%5B%40id%3D'system'%5D%2FARTICLE%2FDIV%5B1%5D%2FUL%5B2%5D%2FLI%5B1%5D%2Ftext(),38"
                }
            },
            "target" : {
                "source": "http://www.crsenne.be/pdf/plateforme%20inondation%2026-08-2014.pdf",
                "selector": {
                    "type": "FragmentSelector",
                    "value": "page=4&xywh=70,655,455,50"
                }
            }
        },

        {
            "type": "Annotation",
            "dc:title" : "Relevés pluviométriques",

            "body" : {
                "source": "http://www.wunderground.com/history/airport/EBBR/2014/6/01/CustomHistory.csv?dayend=31&monthend=8&yearend=2014&format=1"
            },
            "target" : {
                "source": "http://www.crsenne.be/pdf/plateforme%20inondation%2026-08-2014.pdf",
                "selector": {
                    "type": "FragmentSelector",
                    "value": "page=3&xywh=70,775,455,20"
                }
            }
        },
        {
            "type": "Annotation",
            "dc:title" : "Another video chunk",
            "dc:description" : "Another video chunk",

            "body" : {
                "source": "https://rtbf-vod.l3.freecaster.net/vod/rtbf/geo/open/h/hcOb9LaxcI-480p.mp4",
                "selector": {
                    "type": "FragmentSelector",
                    "value": "t=02:20,02:50"
                }
            },
            "target" : {
                "source": "http://www.crsenne.be/pdf/plateforme%20inondation%2026-08-2014.pdf",
                "selector": {
                    "type": "FragmentSelector",
                    "value": "page=2&xywh=65,400,200,20"
                }
            }
        }
    ]
}
